[gd_scene load_steps=4 format=2]

[ext_resource path="res://Scripts/Destroyed.gd" type="Script" id=1]
[ext_resource path="res://Assets/flare.png" type="Texture" id=2]

[sub_resource type="Animation" id=1]
resource_name = "fade_out"
length = 0.5
tracks/0/type = "value"
tracks/0/path = NodePath(".:modulate")
tracks/0/interp = 1
tracks/0/loop_wrap = true
tracks/0/imported = false
tracks/0/enabled = true
tracks/0/keys = {
"times": PoolRealArray( 0, 0.2 ),
"transitions": PoolRealArray( 1, 1 ),
"update": 0,
"values": [ Color( 1, 1, 1, 1 ), Color( 1, 1, 1, 0 ) ]
}

[node name="Destroyed" type="Sprite"]
scale = Vector2( 3.6, 3.6 )
texture = ExtResource( 2 )
script = ExtResource( 1 )

[node name="AnimationPlayer" type="AnimationPlayer" parent="."]
anims/fade_out = SubResource( 1 )
