[gd_scene load_steps=6 format=2]

[ext_resource path="res://Assets/flare.png" type="Texture" id=1]
[ext_resource path="res://Assets/explosion (2).png" type="Texture" id=2]
[ext_resource path="res://Assets/smoke.png" type="Texture" id=3]
[ext_resource path="res://Scripts/Explosion.gd" type="Script" id=4]

[sub_resource type="Animation" id=1]
resource_name = "fade_out"
tracks/0/type = "value"
tracks/0/path = NodePath(".:modulate")
tracks/0/interp = 1
tracks/0/loop_wrap = true
tracks/0/imported = false
tracks/0/enabled = true
tracks/0/keys = {
"times": PoolRealArray( 0, 0.8 ),
"transitions": PoolRealArray( 1, 1 ),
"update": 0,
"values": [ Color( 1, 1, 1, 1 ), Color( 1, 1, 1, 0 ) ]
}

[node name="Explosion" type="Sprite"]
modulate = Color( 1, 1, 1, 0 )
scale = Vector2( 5, 5 )
z_index = 5
texture = ExtResource( 2 )
script = ExtResource( 4 )

[node name="Smoke" type="CPUParticles2D" parent="."]
z_index = 5
emitting = false
amount = 50
lifetime = 1.5
one_shot = true
randomness = 1.0
lifetime_randomness = 0.2
texture = ExtResource( 3 )
emission_shape = 1
emission_sphere_radius = 40.0
spread = 100.0
gravity = Vector2( 0, 20 )

[node name="Flare" type="CPUParticles2D" parent="."]
z_index = 5
emitting = false
amount = 30
lifetime = 1.5
one_shot = true
randomness = 1.0
lifetime_randomness = 0.2
texture = ExtResource( 1 )
emission_shape = 1
emission_sphere_radius = 40.0
spread = 100.0
gravity = Vector2( 0, 20 )

[node name="AnimationPlayer" type="AnimationPlayer" parent="."]
anims/fade_out = SubResource( 1 )
